{"items":[
    {
    	"id":1, 
    	"name":"Damn Vicious Sword", 
    	"description":"A sword", 
    	"type":"weapon", 
    	"attackAnimations": [
    		"sword misses your enemy by an inch",
			"sword barely touches your enemy",
			"sword scratches your enemy",
			"sword punctures your enemy's lung",
			"sword rips your enemy open",
			"sword almost decapitates your enemy"
    		],
    	"stackable":false
    },
    {
    	"id":2, 
    	"name":"Platebody", 
    	"description":"A platebody", 
    	"type":"chestplate", 
    	"attackAnimations": [],
    	"stackable":false
    },
    {
    	"id":3, 
    	"name":"Platelegs", 
    	"description":"Platelegs", 
    	"type":"legs",
    	"attackAnimations": [], 
    	"stackable":false
    },
    {
	    "id":4, 
	    "name":"Helmet", 
	    "description":"A helmet", 
	    "type":"head", 
	    "attackAnimations": [],
	    "stackable":false
    },
    {
    	"id":5, 
    	"name":"Shield", 
    	"description":"A shield", 
    	"type":"shield",
    	"attackAnimations": [], 
    	"stackable":false
    },
    {
    	"id":6, 
    	"name":"Boots", 
    	"description":"Boots", 
    	"type":"foot", 
    	"attackAnimations": [],
    	"stackable":false
    },
    {
    	"id":7, 
    	"name":"Coins", 
    	"description":"Some shiny coins", 
    	"type":"currency", 
    	"attackAnimations": [],
    	"stackable":true
    },
    {
    	"id":8, 
    	"name":"Arrow", 
    	"description":"Arrow", 
    	"type":"quiver", 
    	"attackAnimations": [],
    	"stackable":true
    },  
    {
    	"id":9, 
    	"name":"Sardine", 
    	"description":"A sardine", 
    	"type":"food", 
    	"attackAnimations": [],
    	"stackable":false
    },
    {
    	"id":10, 
    	"name":"Longsword", 
    	"description":"A sword", 
    	"type":"weapon", 
    	"attackAnimations": [
    	    "longsword misses your enemy by an inch",
			"longsword barely touches your enemy",
			"longsword scratches your enemy",
			"longsword punctures your enemy's lung",
			"longsword rips your enemy open",
			"longsword almost decapitates your enemy"
    		],
    	"stackable":false
    }
]}